

 NAS Parallel Benchmarks (NPB3.3-OMP) - IS Benchmark

 Size:  2147483648  (class D)
 Iterations:  10
 Number of available threads:  64

Macros:	DYN

   iteration
        1
        2
        3
        4
        5
        6
        7
        8
        9
        10


 IS Benchmark Completed
 Class           =                        D
 Size            =               2147483648
 Iterations      =                       10
 Time in seconds =                   40.365
 Total threads   =                       64
 Avail threads   =                       64
 Mop/s total     =                   532.02
 Mop/s/thread    =                     8.31
 Operation type  =              keys ranked
 Verification    =             UNSUCCESSFUL
 Version         =                    3.3.1
 Compile date    =              16 Apr 2015

 Compile options:
    CC           = cc
    CLINK        = $(CC)
    C_LIB        = -lnuma
    C_INC        = (none)
    CFLAGS       = -O2 -g -fopenmp
    CLINKFLAGS   = -O2 -fopenmp


 Please send all errors/feedbacks to:

 NPB Development Team
 npb@nas.nasa.gov


